^C:\Users\AU00122P\OneDrive - WSA\Documents\Bachelor Project\fir-filter-coeffecient-change-artifacts\gstpeaq-develop github\vs\gstpeaq.vcxproj
C:\Users\AU00122P\OneDrive - WSA\Documents\Bachelor Project\fir-filter-coeffecient-change-artifacts\gstpeaq-develop github\vs\x64\Release\gstpeaq.lib
C:\Users\AU00122P\OneDrive - WSA\Documents\Bachelor Project\fir-filter-coeffecient-change-artifacts\gstpeaq-develop github\vs\x64\Release\gstpeaq.exp
