^C:\USERS\AU00122P\ONEDRIVE - WSA\DOCUMENTS\BACHELOR PROJECT\FIR-FILTER-COEFFECIENT-CHANGE-ARTIFACTS\GSTPEAQ-DEVELOP GITHUB\VS\X64\RELEASE\TESTPEAQ\EARMODEL.OBJ|C:\USERS\AU00122P\ONEDRIVE - WSA\DOCUMENTS\BACHELOR PROJECT\FIR-FILTER-COEFFECIENT-CHANGE-ARTIFACTS\GSTPEAQ-DEVELOP GITHUB\VS\X64\RELEASE\TESTPEAQ\FBEARMODEL.OBJ|C:\USERS\AU00122P\ONEDRIVE - WSA\DOCUMENTS\BACHELOR PROJECT\FIR-FILTER-COEFFECIENT-CHANGE-ARTIFACTS\GSTPEAQ-DEVELOP GITHUB\VS\X64\RELEASE\TESTPEAQ\FFTEARMODEL.OBJ|C:\USERS\AU00122P\ONEDRIVE - WSA\DOCUMENTS\BACHELOR PROJECT\FIR-FILTER-COEFFECIENT-CHANGE-ARTIFACTS\GSTPEAQ-DEVELOP GITHUB\VS\X64\RELEASE\TESTPEAQ\LEVELADAPTER.OBJ|C:\USERS\AU00122P\ONEDRIVE - WSA\DOCUMENTS\BACHELOR PROJECT\FIR-FILTER-COEFFECIENT-CHANGE-ARTIFACTS\GSTPEAQ-DEVELOP GITHUB\VS\X64\RELEASE\TESTPEAQ\MODPATT.OBJ|C:\USERS\AU00122P\ONEDRIVE - WSA\DOCUMENTS\BACHELOR PROJECT\FIR-FILTER-COEFFECIENT-CHANGE-ARTIFACTS\GSTPEAQ-DEVELOP GITHUB\VS\X64\RELEASE\TESTPEAQ\TESTPEAQ.OBJ
C:\USERS\AU00122P\ONEDRIVE - WSA\DOCUMENTS\BACHELOR PROJECT\FIR-FILTER-COEFFECIENT-CHANGE-ARTIFACTS\GSTPEAQ-DEVELOP GITHUB\VS\X64\RELEASE\TESTPEAQ.EXE
C:\USERS\AU00122P\ONEDRIVE - WSA\DOCUMENTS\BACHELOR PROJECT\FIR-FILTER-COEFFECIENT-CHANGE-ARTIFACTS\GSTPEAQ-DEVELOP GITHUB\VS\X64\RELEASE\TESTPEAQ\TESTPEAQ.IPDB
C:\USERS\AU00122P\ONEDRIVE - WSA\DOCUMENTS\BACHELOR PROJECT\FIR-FILTER-COEFFECIENT-CHANGE-ARTIFACTS\GSTPEAQ-DEVELOP GITHUB\VS\X64\RELEASE\TESTPEAQ\TESTPEAQ.IOBJ
C:\USERS\AU00122P\ONEDRIVE - WSA\DOCUMENTS\BACHELOR PROJECT\FIR-FILTER-COEFFECIENT-CHANGE-ARTIFACTS\GSTPEAQ-DEVELOP GITHUB\VS\X64\RELEASE\TESTPEAQ\TESTPEAQ.PDB
